Using the simR Package
…
There is also travel-to-work data - basically these are counts of the number of people travelling from one Local Authority area to another (or to itself). This is organised so that each row corresponds to a single origin-destination pair:

data(eastmid_ttw)
eastmid_ttw
#> # A tibble: 1,600 x 4
#>    From         To           Count  Dist
#>    <chr>        <chr>        <int> <dbl>
#>  1 Amber Valley Amber Valley 23506   0  
#>  2 Ashfield     Amber Valley  2568  15.6
#>  3 Bassetlaw    Amber Valley    96  47.9
#>  4 Blaby        Amber Valley    20  53.5
#>  5 Bolsover     Amber Valley  2513  24.3
#>  6 Boston       Amber Valley     3  97.1
#>  7 Broxtowe     Amber Valley  1733  14.9
#>  8 Charnwood    Amber Valley    96  39.0
#>  9 Chesterfield Amber Valley   820  25.6
#> 10 Corby        Amber Valley     0  78.6
#> # ... with 1,590 more rows
…
Note that this is a ‘toy’ data set - ideally one would use more geographical detail, and a more realistic cost distance - such as travel time. Also, the cost when the origin and the destination are the same is generally not zero! However, the computing procedures are the same. In the fullness of time I’ll replace these distances with something more convincing…

Using the SIM Model Object

In the first section, a doubly constrained SIM model was fitted, but nothing really done with it. To do things with it, the object should be stored:

eastmid_ttw %>% doubly_constrained_sim(From,To,Dist,Count) -> sim_model

Then it is possible to add the fitted \(\hat{T_{ij}}\) values to the eastmids_ttw data frame.

eastmid_ttw %>% add_sim_fitted(sim_model) -> eastmid_ttw_fitted
eastmid_ttw_fitted
#> # A tibble: 1,600 x 5
#>    From         To           Count  Dist    Fitted
#>    <chr>        <chr>        <int> <dbl>     <dbl>
#>  1 Amber Valley Amber Valley 23506   0   19272    
#>  2 Ashfield     Amber Valley  2568  15.6  2803    
#>  3 Bassetlaw    Amber Valley    96  47.9    77.8  
#>  4 Blaby        Amber Valley    20  53.5    17.3  
#>  5 Bolsover     Amber Valley  2513  24.3   812    
#>  6 Boston       Amber Valley     3  97.1     0.179
#>  7 Broxtowe     Amber Valley  1733  14.9  2073    
#>  8 Charnwood    Amber Valley    96  39.0   176    
#>  9 Chesterfield Amber Valley   820  25.6   931    
#> 10 Corby        Amber Valley     0  78.6     0.835
#> # ... with 1,590 more rows

We can now check that the calibration really is constrained to make the total sums going in to the destinations in the fitted values agree with those in the observed counts:

eastmid_ttw_fitted %>% group_by(To) %>% 
  summarise(Count=sum(Count),Fitted=sum(Fitted))
#> # A tibble: 40 x 3
#>    To           Count Fitted
#>    <chr>        <int>  <dbl>
#>  1 Amber Valley 43359  43359
#>  2 Ashfield     43156  43156
#>  3 Bassetlaw    35376  35376
#>  4 Blaby        40739  40739
#>  5 Bolsover     21819  21819
#>  6 Boston       25053  25053
#>  7 Broxtowe     29693  29693
#>  8 Charnwood    52943  52943
#>  9 Chesterfield 39477  39477
#> 10 Corby        26052  26052
#> # ... with 30 more rows

It seems to! The same could be done for the origins.

Finally, make a map. Here we’ll filter out the fitted trips to Derby and map them, and compare them to the observed trips.

eastmid_ttw_fitted %>% filter(To=='Derby') -> to_derby
to_derby
#> # A tibble: 40 x 5
#>    From         To    Count  Dist   Fitted
#>    <chr>        <chr> <int> <dbl>    <dbl>
#>  1 Amber Valley Derby  8364  13.0 8369    
#>  2 Ashfield     Derby   767  24.4 1997    
#>  3 Bassetlaw    Derby    76  57.9   48.3  
#>  4 Blaby        Derby   119  41.4  152    
#>  5 Bolsover     Derby   518  36.1  408    
#>  6 Boston       Derby    18  97.4    0.356
#>  7 Broxtowe     Derby  1723  15.6 3954    
#>  8 Charnwood    Derby   624  29.2 1177    
#>  9 Chesterfield Derby   391  38.5  410    
#> 10 Corby        Derby     4  69.6    5.10 
#> # ... with 30 more rows
…
