Different Types of SIM Model
…
Here the quantities to be calibrated are the balancing terms for the origins \(\{B_j\}\) and \(\{\alpha_m \}\) and \(\gamma\).

Calibrating An Origin Constrained SIM using simR

This is done using the orig_constrained_sim function. This is similar to the doubly_constrained_sim model, but also requires a data frame giving the attractiveness variables for the destination. Rather than specify the variables used to measure the attractiveness, this function just presumes that all of the variables included are to be used in the model. The attractiveness data frame has \(m+1\) columns - \(m\) of these are the variables \(E_{1.}\) to \(E_{m.}\) and the final column is a key to link each row of variables with the corresponding destination in the interaction data frame. This should have the same column name as that, and also the place names should match exactly. Here, the eastmid_empl data frame can be used:

library(simR)
library(tidyverse)
data(eastmid_ttw)
data(eastmid_empl)
eastmid_empl
#> # A tibble: 40 x 5
#>    To           Micro Small Medium Large
#>  * <chr>        <int> <int>  <int> <int>
#>  1 Amber Valley  3935   415     95    10
#>  2 Ashfield      2475   315     80    15
#>  3 Bassetlaw     3590   390     55     0
#>  4 Blaby         3865   380     70     5
#>  5 Bolsover      2035   250     50    10
#>  6 Boston        1885   260     45    10
#>  7 Broxtowe      3080   265     35     5
#>  8 Charnwood     6840   660    105    15
#>  9 Chesterfield  2840   390     90    10
#> 10 Corby         1965   225     50     5
#> # ... with 30 more rows
…
The cost half life is quite similar to that before - around 5.8km.

The destination scores - the \(\exp\left(\sum_m \alpha_m E_{mi} \right)\) valures for each area \(i\) may be extracted via the dest_scores function. This gives a data frame with the destination name (dest) and the associated score (dest_score) as columns:

sim_o_const %>% dest_scores -> dest_sc
dest_sc 
#> # A tibble: 40 x 2
#>    dest         dest_score
#>    <chr>             <dbl>
#>  1 Amber Valley       2.80
#>  2 Ashfield           2.23
#>  3 Bassetlaw          1.94
#>  4 Blaby              2.22
#>  5 Bolsover           1.66
#>  6 Boston             1.57
#>  7 Broxtowe           1.51
#>  8 Charnwood          3.25
#>  9 Chesterfield       2.57
#> 10 Corby              1.72
#> # ... with 30 more rows
…
